New York City flights
…
The skim output indicate that some flights are canceled. We remove these observations from the dataset:

dat <- flights %>%
  filter(!is.na(dep_time))

Joining datasets

Let us first try to do some mutating joins and combine variables from multiple tables. In flights we have flight information with an abbreviation for carrier (carrier), and in airlines we have a mapping between abbreviations and full names (name). You can use a join to add the carrier names to the flight data:

dat <- dat %>% 
  left_join(airlines) %>% 
  rename(carrier_name = name) %>% 
  print()

# A tibble: 328,521 x 20
    year month   day dep_time sched_dep_time dep_delay arr_time
   <int> <int> <int>    <int>          <int>     <dbl>    <int>
 1  2013     1     1      517            515         2      830
 2  2013     1     1      533            529         4      850
 3  2013     1     1      542            540         2      923
 4  2013     1     1      544            545        -1     1004
 5  2013     1     1      554            600        -6      812
 6  2013     1     1      554            558        -4      740
 7  2013     1     1      555            600        -5      913
 8  2013     1     1      557            600        -3      709
 9  2013     1     1      557            600        -3      838
10  2013     1     1      558            600        -2      753
# ... with 328,511 more rows, and 13 more variables:
#   sched_arr_time <int>, arr_delay <dbl>, carrier <chr>,
#   flight <int>, tailnum <chr>, origin <chr>, dest <chr>,
#   air_time <dbl>, distance <dbl>, hour <dbl>, minute <dbl>,
#   time_hour <dttm>, carrier_name <chr>

Note we here join by the column carrier represented in both data frames. That is, the default argument by = c("carrier" = "carrier") is used. If we want the full name of origin airport, we need to specify which one we want to join to since each flight has an origin and destination airport. Afterwards we do the same for the destination airport.

dat <- dat %>% 
  left_join(airports %>% select(faa, name), 
            by = c("origin" = "faa")) %>% 
  rename(origin_name = name) %>% 
  left_join(airports %>% select(faa, name), 
            by = c("dest" = "faa")) %>% 
  rename(dest_name = name) %>% 
  select(month, carrier_name, origin_name, dest_name, sched_dep_time, dep_delay, arr_delay, distance, tailnum) %>% 
  print()

# A tibble: 328,521 x 9
   month carrier_name origin_name dest_name sched_dep_time dep_delay
   <int> <chr>        <chr>       <chr>              <int>     <dbl>
 1     1 United Air ~ Newark Lib~ George B~            515         2
 2     1 United Air ~ La Guardia  George B~            529         4
 3     1 American Ai~ John F Ken~ Miami In~            540         2
 4     1 JetBlue Air~ John F Ken~ <NA>                 545        -1
 5     1 Delta Air L~ La Guardia  Hartsfie~            600        -6
 6     1 United Air ~ Newark Lib~ Chicago ~            558        -4
 7     1 JetBlue Air~ Newark Lib~ Fort Lau~            600        -5
 8     1 ExpressJet ~ La Guardia  Washingt~            600        -3
 9     1 JetBlue Air~ John F Ken~ Orlando ~            600        -3
10     1 American Ai~ La Guardia  Chicago ~            600        -2
# ... with 328,511 more rows, and 3 more variables: arr_delay <dbl>,
#   distance <dbl>, tailnum <chr>
…
