New York City flights
…
The skim output indicate that some flights are canceled. We remove these observations from the dataset:

dat <- flights %>%
  filter(!is.na(dep_time))

Joining datasets

Let us first try to do some mutating joins and combine variables from multiple tables. In flights we have flight information with an abbreviation for carrier (carrier), and in airlines we have a mapping between abbreviations and full names (name). You can use a join to add the carrier names to the flight data:

dat <- dat %>% 
  left_join(airlines) %>% 
  rename(carrier_name = name) %>% 
  print()

# A tibble: 328,521 x 20
    year month   day dep_time sched_dep_time dep_delay arr_time
   <int> <int> <int>    <int>          <int>     <dbl>    <int>
 1  2013     1     1      517            515         2      830
 2  2013     1     1      533            529         4      850
 3  2013     1     1      542            540         2      923
 4  2013     1     1      544            545        -1     1004
 5  2013     1     1      554            600        -6      812
 6  2013     1     1      554            558        -4      740
 7  2013     1     1      555            600        -5      913
 8  2013     1     1      557            600        -3      709
 9  2013     1     1      557            600        -3      838
10  2013     1     1      558            600        -2      753
# ... with 328,511 more rows, and 13 more variables:
#   sched_arr_time <int>, arr_delay <dbl>, carrier <chr>,
#   flight <int>, tailnum <chr>, origin <chr>, dest <chr>,
#   air_time <dbl>, distance <dbl>, hour <dbl>, minute <dbl>,
#   time_hour <dttm>, carrier_name <chr>

Note we here join by the column carrier represented in both data frames. That is, the default argument by = c("carrier" = "carrier") is used. If we want the full name of origin airport, we need to specify which one we want to join to since each flight has an origin and destination airport. Afterwards we do the same for the destination airport.

dat <- dat %>% 
  left_join(airports %>% select(faa, name), 
            by = c("origin" = "faa")) %>% 
  rename(origin_name = name) %>% 
  left_join(airports %>% select(faa, name), 
            by = c("dest" = "faa")) %>% 
  rename(dest_name = name) %>% 
  select(month, carrier_name, origin_name, dest_name, sched_dep_time, dep_delay, arr_delay, distance, tailnum) %>% 
  print()

# A tibble: 328,521 x 9
   month carrier_name origin_name dest_name sched_dep_time dep_delay
   <int> <chr>        <chr>       <chr>              <int>     <dbl>
 1     1 United Air ~ Newark Lib~ George B~            515         2
 2     1 United Air ~ La Guardia  George B~            529         4
 3     1 American Ai~ John F Ken~ Miami In~            540         2
 4     1 JetBlue Air~ John F Ken~ <NA>                 545        -1
 5     1 Delta Air L~ La Guardia  Hartsfie~            600        -6
 6     1 United Air ~ Newark Lib~ Chicago ~            558        -4
 7     1 JetBlue Air~ Newark Lib~ Fort Lau~            600        -5
 8     1 ExpressJet ~ La Guardia  Washingt~            600        -3
 9     1 JetBlue Air~ John F Ken~ Orlando ~            600        -3
10     1 American Ai~ La Guardia  Chicago ~            600        -2
# ... with 328,511 more rows, and 3 more variables: arr_delay <dbl>,
#   distance <dbl>, tailnum <chr>
…
Are carrier flight delays different at New York airports?

We first calculate median and average delays:

dat %>%
  group_by(carrier_name, origin_name) %>%
  summarise(median_delay = median(dep_delay),
            avg_delay = mean(dep_delay))

# A tibble: 35 x 4
# Groups:   carrier_name [16]
   carrier_name               origin_name       median_delay avg_delay
   <chr>                      <chr>                    <dbl>     <dbl>
 1 AirTran Airways Corporati~ La Guardia              0.0167    0.312 
 2 Alaska Airlines Inc.       Newark Liberty I~      -0.05      0.0967
 3 American Airlines Inc.     John F Kennedy I~      -0.0333    0.172 
 4 American Airlines Inc.     La Guardia             -0.0667    0.112 
 5 American Airlines Inc.     Newark Liberty I~      -0.05      0.167 
 6 Delta Air Lines Inc.       John F Kennedy I~      -0.0333    0.139 
 7 Delta Air Lines Inc.       La Guardia             -0.05      0.160 
 8 Delta Air Lines Inc.       Newark Liberty I~      -0.0333    0.201 
 9 Endeavor Air Inc.          John F Kennedy I~      -0.0167    0.317 
10 Endeavor Air Inc.          La Guardia             -0.0667    0.148 
# ... with 25 more rows
…
Let us do a mutation join so we have a bit more information about each airplane:

dat <- dat %>% 
  left_join(planes %>% 
              select(tailnum, plane_manufacturer = manufacturer, plane_model = model))

What is the monthly usage of all the aircrafts?

This could be useful for some kind of maintenance activity that needs to be done after x number of trips. The summary table is (based on tailnum):

dat %>% 
  count(month, tailnum, sort = TRUE)

# A tibble: 37,876 x 3
   month tailnum     n
   <int> <chr>   <int>
 1     5 N723MQ     76
 2     7 N298JB     76
 3     1 N730MQ     72
 4     1 N739MQ     71
 5     5 N721MQ     71
 6     5 N725MQ     69
 7     7 N721MQ     68
 8     1 N713MQ     67
 9     3 N725MQ     67
10     7 N711MQ     67
# ... with 37,866 more rows
…
We have made a boxplot for each month and can easily see potential outliers for each month. There are many outliers in march, may and october.

What does the dot at the bottom of the plot for May correspond to? Explain what might have occurred in May to produce this point.

The dot in the boxplot of may is an outlier of -10 degrees in a month where the average temperature is around 20 degrees. This could be explained by a sensor failure, resulting in a false observation.

Any insights on canceled flights?

The canceled flights are:

dat_c <- flights %>%
  filter(is.na(dep_time)) %>% 
  print()

# A tibble: 8,255 x 19
    year month   day dep_time sched_dep_time dep_delay arr_time
   <int> <int> <int>    <int>          <int>     <dbl>    <int>
 1  2013     1     1       NA           1630        NA       NA
 2  2013     1     1       NA           1935        NA       NA
 3  2013     1     1       NA           1500        NA       NA
 4  2013     1     1       NA            600        NA       NA
 5  2013     1     2       NA           1540        NA       NA
 6  2013     1     2       NA           1620        NA       NA
 7  2013     1     2       NA           1355        NA       NA
 8  2013     1     2       NA           1420        NA       NA
 9  2013     1     2       NA           1321        NA       NA
10  2013     1     2       NA           1545        NA       NA
# ... with 8,245 more rows, and 12 more variables:
#   sched_arr_time <int>, arr_delay <dbl>, carrier <chr>,
#   flight <int>, tailnum <chr>, origin <chr>, dest <chr>,
#   air_time <dbl>, distance <dbl>, hour <dbl>, minute <dbl>,
#   time_hour <dttm>
…
